%YAML 1.1
%TAG !u! tag:unity3d.com,2011:
--- !u!1045 &1
EditorBuildSettings:
  m_ObjectHideFlags: 0
  serializedVersion: 2
  m_Scenes:
  - enabled: 1
    path: Assets/Scenes/Test_level1.unity
    guid: f9b4092d9d1b6a24e90ce3cf932a074e
  - enabled: 1
    path: Assets/Scenes/Test_level2.unity
    guid: e6309f05f15d14649bb5e526df21eb68
  m_configObjects: {}
