%YAML 1.1
%TAG !u! tag:unity3d.com,2011:
--- !u!162 &1
EditorUserSettings:
  m_ObjectHideFlags: 0
  serializedVersion: 4
  m_ConfigSettings:
    RecentlyUsedScenePath-0:
      value: 22424703114646680e0b0227036c6b1505032b292926237e38271427fb
      flags: 0
    RecentlyUsedScenePath-1:
      value: 22424703114646680e073304191c6f1905031726136b777f1e281023eee5073be7e933a7f234362820
      flags: 0
    RecentlyUsedScenePath-2:
      value: 22424703114646680e0b0227036c74051416563f22213229
      flags: 0
    RecentlyUsedScenePath-3:
      value: 22424703114646680e0b0227036c6c13131919150b2423322c67083debf42d
      flags: 0
    RecentlyUsedScenePath-4:
      value: 2242470311464676020c052e1937463104030b651f2b2f1624011c3de6c72136adc023e7d81e3a31364cfa320d2a18
      flags: 0
    RecentlyUsedScenePath-5:
      value: 22424703114646680e0b0227036c73150045563f22213229
      flags: 0
    RecentlyUsedScenePath-6:
      value: 22424703114646680e0b0227036c6b1505032726293e233c7f67083debf42d
      flags: 0
    RecentlyUsedScenePath-7:
      value: 22424703114646680e0b0227036c6b1505032726293e233c7c67083debf42d
      flags: 0
    vcSharedLogLevel:
      value: 0d5e400f0650
      flags: 0
  m_VCAutomaticAdd: 1
  m_VCDebugCom: 0
  m_VCDebugCmd: 0
  m_VCDebugOut: 0
  m_SemanticMergeMode: 2
  m_VCShowFailedCheckout: 1
  m_VCOverwriteFailedCheckoutAssets: 1
  m_VCProjectOverlayIcons: 1
  m_VCHierarchyOverlayIcons: 1
  m_VCOtherOverlayIcons: 1
  m_VCAllowAsyncUpdate: 1
